<?xml version="1.0" encoding="utf-8"?>
<!-- Generator: Adobe Illustrator 21.1.0, SVG Export Plug-In . SVG Version: 6.00 Build 0)  -->
<svg version="1.1" id="Capa_1" xmlns="http://www.w3.org/2000/svg" xmlns:xlink="http://www.w3.org/1999/xlink" x="0px" y="0px"
	 viewBox="0 0 32 20" style="enable-background:new 0 0 32 20;" xml:space="preserve">
<style type="text/css">
	.st0{fill:#65AF71;}
</style>
<g>
	<path class="st0" d="M16,5l-5-5H3C1.3,0,0,1.3,0,3v14c0,1.7,1.3,3,3,3h10c1.7,0,3-1.3,3-3L16,5z M14,17c0,0.6-0.4,1-1,1H3
		c-0.6,0-1-0.4-1-1V3c0-0.6,0.4-1,1-1h7v2c0,1.1,0.9,2,2,2h2V17z"/>
</g>
<g>
	<path d="M32,5l-5-5h-8c-1.7,0-3,1.3-3,3v14c0,1.7,1.3,3,3,3h10c1.7,0,3-1.3,3-3L32,5z M30,17c0,0.6-0.4,1-1,1H19c-0.6,0-1-0.4-1-1
		V3c0-0.6,0.4-1,1-1h7v2c0,1.1,0.9,2,2,2h2V17z"/>
</g>
</svg>
