<?xml version="1.0" encoding="utf-8"?>
<!-- Generator: Adobe Illustrator 21.1.0, SVG Export Plug-In . SVG Version: 6.00 Build 0)  -->
<svg version="1.1" id="Слой_1" xmlns="http://www.w3.org/2000/svg" xmlns:xlink="http://www.w3.org/1999/xlink" x="0px" y="0px"
	 viewBox="0 0 500 750" style="enable-background:new 0 0 500 750;" xml:space="preserve">
<style type="text/css">
	.st0{fill:#0D8D62;}
</style>
<path class="st0" d="M249.1,454.2c-25.9,1-52.8,32.9-56.8,42.8c-0.2,0.5-0.1,0.9,0.1,1.2c-2.9,1-5.4,1.7-6.1,1.7
	c-2,0,28.9-47.5,36.8-54.8c7.3-6.7,17.4-9.8,23.2-11.1c9.4,1.1,29.9-0.6,52.5-4.8c20.6-3.9,52.8-22.9,74.7-37.8
	c28.8-19.6,115.5-91.6,115.5-91.6S333.8,372,299.8,384.5c-29.7,10.9-54.5,36.6-58.7,46.7c-5.1,2.4-13.6,6.4-15,7.1
	c-1.9,0.9,15.3-21.5,20.9-30.2c5.5-4.9,15.4-14.6,20.9-25.6c8-15.9,15.9-70.7,12.9-104.6c0,0-10,75.7-18.9,96.6
	c-7.5,17.6-15.8,31.7-18.2,35.7c-8.7,10.9-35.1,44.3-42.5,55.9c-1.4,2.2-3.4,5.3-5.8,9.1c0.3-6.8,1.3-24,2.8-33.5
	c9.5-6.3,26.6-32.5,33.9-61.2c5-19.8,20.1-76.3,32.3-122.1c28.1-28.4,89.2-87,89.2-87c-0.2-1.2-35.9,16.9-61.7,30.9
	c-4.8,2.6-9.7,5.3-14.5,8.1c2.8-10.6,4.6-17.1,4.6-17.1s-3.8,7.9-9.6,20c-20,11.8-39.5,25-52.2,35.8c-20,17-25.8,31.7-22.8,39
	c-2.7,1.7-7.6,5.2-10.6,8.9c-0.2-10-0.6-19.9-1-29.5c0.2-1.7,1-8.2,3.6-12.5c2.7-4.5,8.8-15.7,11.3-22.9
	c8.8-2.9,26.7-32.2,29.5-64.7c3-34.9,13.3-138.2,13.3-138.2c-0.9-0.8-18.2,43.8-24.2,72.5c-7,32.9-18.7,63.9-21.9,85.6
	c-3.6,24.6-4,38.5-0.8,43.2c-1.9,5.4-6.8,18.4-9.1,21.5c-0.9,1.2-1.7,2.7-2.2,4.2c-2-34.5-5.1-62.2-5.7-67.2
	c0.4-6.9,1.1-15.8,2.4-25.5c3-21.3,32.1-87.4,32.1-87.4c-19,25.9-39.5,74.1-40.9,90.9c-1.1,13.6,3.6,28.8,5.3,33.8l-0.1,1.3
	c0,0,0.3,3.8,0.8,10c-1.3-1.9-3.5-4.8-5.8-6.4c-0.5-10.7-7.2-39.4-33.8-67.3C118.6,116.6,40,12,40,12s34.9,66.7,53.8,107.6
	c10.8,23.3,31.9,55.8,45.8,66.7c19,14.9,28.9,21.7,32.4,21.7c2.1,2.7,6,8,7.9,13.2c1,14.7,2.4,35.6,3.2,55.1
	c-1.8-3.7-3.8-6.8-4.7-8.1c-0.4-11.1-2.1-33.4-28.8-59.1c-27-25.7-138.5-108.4-138.5-108.4s43.5,49.9,72.3,83.9
	c16.6,19.6,37.4,52,54.9,62.3c20.2,11.9,32.7,21.8,37.6,23.9c3.1,3.7,5.9,10.4,7.4,14.2c0.5,13.6,0.6,25.9,0,33.8
	c-2,28.9-2,55.8-6,70.7c-2.8,10.3-13.1,27.3-19.3,36.8c-10-26.5-23.7-49.7-33.5-67.7c-12.8-23.9-51.6-86.7-51.6-86.7
	s33.7,163.5,52.6,206.8c-4.8,7.7-10.1,16.4-12.8,20.2c-0.8,1.1-0.3-18-1-16.9c-0.3,0.4-0.7,2.4-1,6c-0.4,6.4,0.1,11.3-1,13.9
	c-2,4.8-5.6,10.5-7,12.9c-13.4,23.5-15.9,36.8-22.9,48.8s-13.9,20.9-13.9,20.9v12.9c0,0,7,3,13.9-16.9c7-19.9,16.9-43.8,16.9-43.8
	s12.9-6,24.9-15.9c8.1-6.8,14.9-15.4,18.4-20.2c5.9,4.9,11.8,5.7,17.5,4.3c0.1,0,0.3-0.1,0.4-0.1c1.5,3.1,6.5,13.7,6.8,18.8
	c-5.8,9.4-10.7,17.5-13.2,22.2c-8.2,15.4-37.8,64.7-39.8,83.7c-2,18.9-2,47.8-2,47.8s-6-12-6-23.9s0-79.7-2-86.6s-7,59.8-7,71.7
	c0,12,9,34.9,11.9,40.8c3,6,4,38.8,3,52.8s4-1,4-1s0-49.8,0-64.7s4.9-40.4,12-58.8c12-30.9,47.8-93.6,53.8-99.6
	c5.6-5.6,13.9-7.4,19-7.8c8.8,1.2,26.1,0.8,45.7,1.8c20.9,1,56.2-9.6,87.6-14.9c26.8-4.6,72.7-14.9,72.7-14.9
	S295.9,452.3,249.1,454.2z M186.3,338.7c0.5-10.6,0.6-21.7,0.5-32.9c1.1-4.6,4.1-11.1,12.9-14.4c8.7,8.2,23.5,3.3,40.6-10.1
	c-5.7,12.3-11,24-15.2,33.5c-9.6,21.8-27.4,51.8-31.2,72.1c-6.4,9.2-18.5,26.2-28.2,36.4c2.1-3.7,3.7-6.8,4.7-8.9
	C175.4,403.4,183.3,404.4,186.3,338.7z M117.6,516.9c-11.8,8.9-15.9,10-15.9,10s14.6-24.9,26.3-42.8c2.8,5.5,5.6,9.8,8.4,13
	C132.8,502.5,126.6,510.2,117.6,516.9z M166.8,520.3c-1.3-3.4-4.4-11.4-5.2-16.8c11.8-6.1,11.1-24.2,4.9-50.3
	c-1.3-5.5-2.9-10.9-4.6-16.3c4-4.4,8.4-9.2,12.5-13.6c6.6-7.2,13.5-17.1,18.4-24.5c-1.5,24.3-0.3,41.5,3,43.6
	c-1.5,8.3-5.2,31.1-4.4,36.7c0.1,0.8,0.3,1.4,0.4,1.9C184.4,492.4,174.9,507.2,166.8,520.3z"/>
<g id="Layer_2">
</g>
</svg>
