<?xml version="1.0" encoding="utf-8"?>
<!-- Generator: Adobe Illustrator 21.1.0, SVG Export Plug-In . SVG Version: 6.00 Build 0)  -->
<svg version="1.1" id="Layer_1" xmlns="http://www.w3.org/2000/svg" xmlns:xlink="http://www.w3.org/1999/xlink" x="0px" y="0px"
	 viewBox="0 0 27 18" style="enable-background:new 0 0 27 18;" xml:space="preserve">
<style type="text/css">
	.st0{fill:#41479B;}
	.st1{fill:#F5F5F5;}
	.st2{fill:#FF4B55;}
</style>
<path class="st0" d="M26.5,18H0.5C0.2,18,0,17.8,0,17.5V0.5C0,0.2,0.2,0,0.5,0h26.1C26.8,0,27,0.2,27,0.5v17.1
	C27,17.8,26.8,18,26.5,18z"/>
<path class="st1" d="M27,0.5C27,0.2,26.8,0,26.5,0h-2.1l-8.6,5.7V0h-4.7v5.7L2.5,0H0.5C0.2,0,0,0.2,0,0.5v1.2l7.4,4.9H0v4.7h7.4
	L0,16.3v1.2C0,17.8,0.2,18,0.5,18h2.1l8.6-5.7V18h4.7v-5.7l8.6,5.7h2.1c0.3,0,0.5-0.2,0.5-0.5v-1.2l-7.4-4.9H27V6.6h-7.4L27,1.7V0.5
	z"/>
<g>
	<polygon class="st2" points="27,7.6 14.9,7.6 14.9,0 12.1,0 12.1,7.6 0,7.6 0,10.4 12.1,10.4 12.1,18 14.9,18 14.9,10.4 27,10.4 	
		"/>
	<path class="st2" d="M9.4,11.4L0,17.6C0,17.8,0.2,18,0.5,18h0.6l10-6.6L9.4,11.4L9.4,11.4z"/>
	<path class="st2" d="M18.3,11.4h-1.7l10,6.6c0.2,0,0.4-0.2,0.4-0.5v-0.4L18.3,11.4z"/>
	<path class="st2" d="M0,1l8.5,5.6h1.7L0.3,0C0.1,0.1,0,0.3,0,0.5V1z"/>
	<path class="st2" d="M17.5,6.6L27,0.4c0-0.2-0.2-0.4-0.4-0.4h-0.7l-10,6.6H17.5z"/>
</g>
</svg>
