<?xml version="1.0" encoding="utf-8"?>
<!-- Generator: Adobe Illustrator 21.1.0, SVG Export Plug-In . SVG Version: 6.00 Build 0)  -->
<svg version="1.1" id="Layer_1" xmlns="http://www.w3.org/2000/svg" xmlns:xlink="http://www.w3.org/1999/xlink" x="0px" y="0px"
	 viewBox="0 0 27 18" style="enable-background:new 0 0 27 18;" xml:space="preserve">
<style type="text/css">
	.st0{fill:#FF4B55;}
	.st1{fill:#FFE15A;}
</style>
<g>
	<path class="st0" d="M26.5,18H0.5C0.2,18,0,17.8,0,17.5V0.5C0,0.2,0.2,0,0.5,0h26.1C26.8,0,27,0.2,27,0.5v17.1
		C27,17.8,26.8,18,26.5,18z"/>
	<g>
		<path class="st1" d="M4.5,2.8l0.4,1.4l1.4,0c0.2,0,0.3,0.2,0.1,0.3L5.3,5.4l0.4,1.4C5.8,6.9,5.6,7.1,5.4,7L4.3,6.1L3.2,7
			C3,7.1,2.8,6.9,2.9,6.7l0.4-1.4L2.2,4.5C2,4.4,2.1,4.2,2.3,4.2l1.4,0l0.4-1.4C4.2,2.6,4.4,2.6,4.5,2.8z"/>
		<path class="st1" d="M9.6,3.1l0.3,0.4l0.5-0.2c0.1,0,0.1,0.1,0.1,0.1L10.2,4l0.3,0.4c0,0.1,0,0.1-0.1,0.1L9.9,4.4L9.6,4.8
			c0,0.1-0.1,0-0.1,0l0-0.5L8.9,4.1c-0.1,0-0.1-0.1,0-0.1l0.5-0.2l0-0.5C9.4,3.1,9.5,3.1,9.6,3.1z"/>
		<path class="st1" d="M7.6,1.8l0.5,0.1l0.2-0.5c0-0.1,0.1-0.1,0.1,0l0.1,0.5L9.2,2c0.1,0,0.1,0.1,0,0.1L8.7,2.4L8.8,3
			C8.9,3,8.8,3.1,8.7,3L8.3,2.7L7.9,2.9c-0.1,0-0.1,0-0.1-0.1L8,2.3L7.6,2C7.5,1.9,7.6,1.8,7.6,1.8z"/>
		<path class="st1" d="M8.5,7.1L8.2,7.6L7.7,7.4c-0.1,0-0.1,0.1-0.1,0.1L7.9,8L7.6,8.4c0,0.1,0,0.1,0.1,0.1l0.5-0.2l0.3,0.4
			c0,0.1,0.1,0,0.1,0l0-0.5L9.1,8c0.1,0,0.1-0.1,0-0.1L8.6,7.7l0-0.5C8.6,7.1,8.5,7.1,8.5,7.1z"/>
		<path class="st1" d="M10.4,5.9L9.9,6L9.7,5.5c0-0.1-0.1-0.1-0.1,0L9.4,6L8.9,6.1c-0.1,0-0.1,0.1,0,0.1l0.5,0.3L9.2,7
			c0,0.1,0.1,0.1,0.1,0.1l0.4-0.4L10.2,7c0.1,0,0.1,0,0.1-0.1l-0.2-0.5L10.5,6C10.5,6,10.5,5.9,10.4,5.9z"/>
	</g>
</g>
</svg>
