<?xml version="1.0" encoding="utf-8"?>
<!-- Generator: Adobe Illustrator 21.1.0, SVG Export Plug-In . SVG Version: 6.00 Build 0)  -->
<svg version="1.1" id="Isolation_Mode" xmlns="http://www.w3.org/2000/svg" xmlns:xlink="http://www.w3.org/1999/xlink" x="0px"
	 y="0px" viewBox="0 0 16 6" style="enable-background:new 0 0 16 6;" xml:space="preserve">
<style type="text/css">
	.st0{fill:#65AF71;}
</style>
<path class="st0" d="M3.1,5.3L0.3,1.8C-0.3,1.1,0.2,0,1.1,0h5.8c0.9,0,1.4,1.1,0.9,1.8L4.9,5.3C4.4,5.8,3.6,5.8,3.1,5.3z"/>
<path d="M11.2,0.7L8.3,4.2C7.7,4.9,8.2,6,9.1,6h5.8c0.9,0,1.4-1.1,0.9-1.8l-2.9-3.5C12.4,0.2,11.6,0.2,11.2,0.7z"/>
</svg>
