<?xml version="1.0" encoding="utf-8"?>
<!-- Generator: Adobe Illustrator 21.1.0, SVG Export Plug-In . SVG Version: 6.00 Build 0)  -->
<svg version="1.1" id="Layer_1_copy" xmlns="http://www.w3.org/2000/svg" xmlns:xlink="http://www.w3.org/1999/xlink" x="0px"
	 y="0px" viewBox="0 0 220 170" style="enable-background:new 0 0 220 170;" xml:space="preserve">
<style type="text/css">
	.st0{fill:#B2D3F2;}
	.st1{fill:#CE5E2C;}
	.st2{fill:#A24034;}
	.st3{fill:#FFE8D6;}
	.st4{fill:#873431;}
	.st5{fill:#4B1927;}
	.st6{fill:#AF8A94;}
	.st7{fill:#762B30;}
	.st8{fill:#893936;}
	.st9{fill:#542435;}
	.st10{fill:#AA3D33;}
	.st11{fill:#D66D3A;}
	.st12{fill:#F89D65;}
	.st13{fill:#C5603C;}
	.st14{fill:#B75738;}
	.st15{fill:#FFFFFF;}
	.st16{fill:#DA8927;}
	.st17{fill:#D86D27;}
	.st18{fill:#17162B;}
	.st19{fill:#874A44;}
	.st20{fill:#FFF3E5;}
	.st21{fill:#3A3051;}
	.st22{fill:#542E55;}
	.st23{fill:#A18C9E;}
	.st24{fill:#FEEBDF;}
	.st25{fill:#E7D3C7;}
	.st26{fill:#FEE2CE;}
</style>
<g>
	<path class="st0" d="M117.5,146c48.8,0,88.3,5.4,88.3,12s-39.5,12-88.3,12s-88.3-5.4-88.3-12S68.7,146,117.5,146z"/>
	<g id="hvost">
		<path class="st1" d="M205.6,84.8c5.1,1.1,13.9,17.2,11.8,24.6c-5.5,19.2-21.7,44.2-68.1,40.9c-6.6-0.4-16.2-15.8-5.1-18.7
			c20.2-5.4,28.3-21.9,29.8-38.8C174.1,91.2,179.4,79,205.6,84.8z"/>
		<path class="st2" d="M193.1,124.2c-0.7-1.8-1.5-3.5-2.8-4.9c-2.3-2.5-5.6-0.5-6.7-1.3c2.5-0.7,1.4-2.8,0-3.2
			c-5.4-1.7-11.1-1.4-16.1-0.4c-1.9,3.3-4.3,6.3-7.3,8.9c4.6-1.3,11.1-1.8,17.1,2.7c2.1,1.5,3.5,3.4,3.9,5.6
			c0.3,2.3,1.3-0.1,2.2-0.3c0.7,2.8-1.7,3.9-1.7,4.7c0,1.4,2.7-1.4,2.7,0.1c0,6.7-3.2,10.6-4.1,11.7c5.2-1.5,9.8-3.6,13.7-6
			C195.2,136.5,195.3,129.8,193.1,124.2z"/>
		<path class="st2" d="M196.1,97c-3.7-1.3-7.5-1.2-10.8-0.5c-1.4,0.3-1.9-2-0.9-3.8c-3.1,1.1-5.2,5.9-6.1,6.4
			c-0.8,0.4-0.4-1-0.1-2.3c-2.6,1.2-3,4.1-3.4,4.3c-1,0.6-1.8,1.3-2.5,1.8c-0.7,2.6-1.6,5.1-2.7,7.6c3-2.2,12-7.4,22.5,0.9
			c7.8,6.3,10.1,17.6,10.8,23.4c4.8-4.7,8.3-10,10.8-15.3C212.5,111.1,205.7,100.3,196.1,97z"/>
		<path class="st3" d="M209.8,65.8c0.2,0.9,0.5,1.4-0.3,0.7c-2.2-1.7-3.3-2-9.4-3.2c-8.7-1.8-16.5,6.5-13.9,1.6
			c-3.8,2-5.9,4.1-7.2,5.6c-3.9,4.4-4.7,10.3-4.8,17.2c0,1.9-0.1,3.8-0.3,5.7c2.2-4.2,8.3-11.2,23.2-8.1c2.1,0.4,3.3,0.7,4.9,1.4
			c0.5,0.2,2,0.4,1.7-1.1c-0.1-0.5,1.9,1.3,1.9,2.9c0,0.7,1.4-1.1,0.8-2.7c3.8,1.7,3.7,6.6,4.2,7c5.6,5,6.6,13.4,6.8,16.8
			c2.2-7.4,2.7-14,2.7-17.9C220,83.7,219.6,72,209.8,65.8z"/>
	</g>
	<g id="leg_L">
		<path class="st4" d="M50.8,127.5c-2.3,0-4.3-0.3-6.2-0.6c3.4,2.2,7.3,8.9,11.5,21.9c2.5,7.7,1,11.6-0.4,13.5
			c8.4-0.3,21.7-3.1,29-3.6c10.2-0.7,5.5-20.3-5-28.6C71.2,123.2,53.4,127.5,50.8,127.5z"/>
		<path class="st5" d="M57,148.6c-4.2-13-7.2-19-12.4-21.7c-3.3-0.5-6.2-1.1-8.5-0.3c-2,0.7-8.2,2.7-8.4,11.1c0.2,0,0.4-0.1,0.7-0.1
			c4,0.2,4.1,5.7,6.4,11.5c2.1,5.5,7.8,9.6,6.2,11.8c1.4,0.5,3,0.8,4.8,1c3.3,0.4,6.7,0.4,10.1,0.3C57.2,160.4,59.4,156.3,57,148.6z
			"/>
		<path class="st6" d="M35.1,149c-2.2-5.8-1.7-11.5-6.7-11.4c-0.2,0-0.4,0-0.7,0.1c-0.1,3.1,0.6,7,2.6,12.1
			c2.1,5.4,5.1,9.2,10.6,11.1C42.8,158.2,37.1,154.5,35.1,149z"/>
	</g>
	<g id="leg_r">
		<path class="st4" d="M153.5,127.5c2.3,0,4.3-0.3,6.2-0.6c-3.4,2.2-7.3,8.9-11.5,21.9c-2.5,7.7-1,11.6,0.4,13.5
			c-8.4-0.3-21.7-3.1-29-3.6c-10.2-0.7-5.5-20.3,5-28.6C133,123.2,150.8,127.5,153.5,127.5z"/>
		<path class="st5" d="M147.3,148.6c4.2-13,7.2-19,12.4-21.7c3.3-0.5,6.2-1.1,8.5-0.3c2,0.7,8.2,2.7,8.4,11.1
			c-0.2,0-0.4-0.1-0.7-0.1c-4,0.2-4.1,5.7-6.4,11.5c-2.1,5.5-7.8,9.6-6.2,11.8c-1.4,0.5-3,0.8-4.8,1c-3.3,0.4-6.7,0.4-10.1,0.3
			C147.1,160.4,144.8,156.3,147.3,148.6z"/>
		<path class="st6" d="M169.2,149c2.2-5.8,1.7-11.5,6.7-11.4c0.2,0,0.4,0,0.7,0.1c0.1,3.1-0.6,7-2.6,12.1
			c-2.1,5.4-5.1,9.2-10.6,11.1C161.4,158.2,167.1,154.5,169.2,149z"/>
	</g>
	<g id="body">
		<path class="st7" d="M59.4,133.8c0,7,3.3,13.9,9.1,19.6c9.1,5,20.5,7.1,32.6,7.1c14.4,0,27.9-3,37.6-10.4c3.2-4.7,4.9-10,4.9-15.6
			c0-8,1.9-33.8-40.6-31.7C54.2,105.2,59.4,126.5,59.4,133.8z"/>
		<path class="st8" d="M153.7,115.9c0-22.8-11.8-80.2-52.7-80.2s-52.6,57.3-52.6,80c0,19.1,8,31,20.1,37.7
			c-5.7-5.7-9.1-12.6-9.1-19.6c0-14.8,10.2-23.6,33.1-26.9c1.9-0.3,3.7,1.6,2.8,4.5c1.5-0.1,6.3-5.5,7.8-5.6c1,0,0,2.6,4.8,4.7
			c-1.5-3.1-0.2-4.9,0.6-4.9c28-0.3,35,13.2,35,29c0,5.5-1.7,10.8-4.9,15.6C147.9,143.1,153.7,132.1,153.7,115.9z"/>
	</g>
	<g id="heand_l">
		<path class="st9" d="M71.6,105.7c-3.6-1.5-5.8-4.7-7.2-8.6c-1.8-3.2-12.8-4.5-19.9-0.7c-7.4,3.9-7.5,13.4-5.9,20.6
			c5.7,13.5,22,20.1,31.1,17.5C78.2,132.2,82.9,110.4,71.6,105.7z"/>
		<path class="st10" d="M45.5,97.5c7.4-3.2,15.4-3.1,18.9-0.3c-4.1-11.3-1.6-28.7-8.7-28.7c-7.3,0-16,13-18.6,27.1
			c-0.2,1.1-1.8,1-2.2,4.4c1.1-0.3,1.6-0.2,1.8,0.8c0.1,0.4-2.1,1.6-1.7,3.9c0.1,0.7,1.1-1.1,1.7,4.6c0.3,2.7,0.9,5.2,1.9,7.5
			C37,109.9,39.2,100.2,45.5,97.5z"/>
	</g>
	<g id="heand_r_1_">
		<path class="st9" d="M154.4,100.2c-4.9-1.6-12.4,0.3-17,2.4c-1.3,2.8-3.2,5-6,5.9c-11.6,3.9-7.2,28.3,1.3,30.7
			c9,2.5,24.6-4,30.7-17.3C164.7,119.5,167.5,104.4,154.4,100.2z"/>
		<path class="st10" d="M167.9,109.2c0.1-4.3-1.1-5.4-1.1-5.4s0.8-0.8,1.9,0.3c-0.5-3.1-3.4-5-3.7-6.5c-3.2-13-11.3-24.6-18.1-24.6
			c-7.6,0-4.6,19.1-9.4,29.4c5.5-1.5,11.2-1.7,16.2-0.1c13.1,4.2,10.1,18.6,10,19.5c1.1-2.4,1.9-4.9,2.3-7.7
			C167.1,105.6,167.9,109.2,167.9,109.2z"/>
	</g>
	<g id="face">
		<path class="st11" d="M155.1,60.6c-1.6-23.1-8.3-23.1-10.2-27.3c-13.4-29.6-50-19.7-45.3-30.6l0.1-0.4c-4.3,0.9-4.5,4.4-5.8,4.5
			C88,7.4,79.9,9.3,78,10.7C76.1,12,56.8,25.8,49.2,55.5c-4.6,18.2,10.3,32,30.6,36.7c15.8,3.6,50.3,6.4,61.5,1.9
			c0,0.1,0.8-0.3,0.8-0.1c6.4-3.5,11.1-8.3,13.4-14.8c2.1-6.1,3.4-5.1,3.3-5.8c-0.4-3.2-2.3-5.7-2.3-5.7s0.1-1.1,1.1-1.3
			C156.1,64.8,155.3,62.9,155.1,60.6z"/>
		<path class="st12" d="M159.9,66.9c0-2.9-2.6-6.4-2.9-8.4c-2.6-17.3-13.2-42-40.2-49.6c-2.3-0.6-8.5-3.7-6.7-7.5
			c-1.8-0.3-5.6,2.1-6.1,5.4c-2-0.1-4.1-1.6-3.2-4.6c-0.4,0-0.8,0.1-1.2,0.2l-0.1,0.4c-6,12.3,31.9,1,45.3,30.6
			c1.9,4.2,8.2,4.2,9.8,27.3c0.1,2.4,0.8,4.5,2.4,6C157.5,66.4,158.9,66.3,159.9,66.9z"/>
		<path class="st13" d="M80.2,91.4c-20.3-4.7-32.9-17.7-28.3-35.9C59.5,25.7,83.3,32.7,79,11.2c-0.3-0.2-0.6-0.4-1-0.5
			c-19.6,8.2-29.8,26.8-33.7,40.8c-0.3,1.3-5.4,6-5.3,11.5c1.4-1.4,3.4-1.2,3.4-1.2c-0.1,1.2-3,2.2-3.4,8c3.4-0.9,4.4,3.1,6,6.4
			c7.3,15.1,28.7,23,52.8,24.6c16.8,1.1,33.2-0.7,44.3-6.8c0-0.1,0-0.2,0.1-0.3C131,98.1,96,95.1,80.2,91.4z"/>
	</g>
	<g id="p">
		<path class="st14" d="M91.7,59.4C90,69.2,77.4,78.8,67.5,78.9c-13.2,0-15.6-9.9-12.7-19.5c3.5-11.6,12.5-16.5,20.4-17.8
			C87.8,39.5,94.3,44.7,91.7,59.4z"/>
		<path class="st14" d="M107.2,60.6c1,9.9,12.8,20.4,22.7,21.1c13.2,1,16.3-8.7,14.1-18.5c-2.7-11.9-11.2-17.4-19.1-19.3
			C112.6,41,105.7,45.8,107.2,60.6z"/>
	</g>
	<g id="glaza">
		<g id="glaz_l">
			<path class="st15" d="M87.7,59.7c0.1,6.7-5.2,11.6-11.8,12.4c-8.9,1-13.1-5.2-12.4-11.8c0.7-7,7.2-11.6,11.8-12.4
				C84.2,46.4,87.5,53,87.7,59.7z"/>
			<g>
				<path class="st16" d="M70.2,66.3c-0.3,0-0.7,0.1-1,0.2c-1.3-1.7-2.2-3.7-2.2-6.1c-0.1-5.6,4.2-10.1,9.8-10.3
					c0.9,0,1.8,0.1,2.6,0.3c-1.2,0.6-2.1,1.9-2.1,3.3c0,2,1.7,3.6,3.7,3.5s3.6-1.7,3.5-3.7v0c1.5,1.7,2.5,3.9,2.5,6.4
					c0.1,5.6-4.2,10.1-9.8,10.3c-1.7,0-3.2-0.3-4.6-1c0-0.2,0.1-0.4,0-0.6C72.6,67.4,71.5,66.3,70.2,66.3z"/>
			</g>
			<path class="st17" d="M70.2,66.3c-0.3,0-0.6,0.1-0.9,0.2c-1.4-1.7-2.2-3.7-2.2-6c0-2,0.5-3.9,1.5-5.6c0.3-0.4,0.9-0.6,1.3-0.3
				c0.4,0.3,0.6,0.9,0.3,1.3c-0.8,1.3-1.3,2.9-1.2,4.4c0,2.1,0.9,4.1,2.5,5.5c1.5,1.5,3.5,2.2,5.7,2.2c1.9,0,3.7-0.8,5.1-2
				c0.4-0.3,1-0.3,1.4,0c0.3,0.4,0.3,1,0,1.4c-1.7,1.6-4,2.5-6.4,2.5c-0.1,0-0.1,0-0.2,0c-1.5,0-3-0.3-4.3-1c0-0.1,0-0.3,0-0.4
				C72.6,67.4,71.5,66.3,70.2,66.3z"/>
			<g>
				<path class="st18" d="M76.8,52.4c0.2,0,0.5,0,0.7,0c-0.1,0.4-0.2,0.9-0.2,1.4c0,2,1.7,3.6,3.7,3.5c1,0,2-0.5,2.6-1.2
					c0.7,1.1,1.1,2.5,1.2,3.9c0.1,4.3-3.3,7.9-7.6,8c-4.3,0.1-7.9-3.3-8-7.6C69.1,56.1,72.5,52.5,76.8,52.4z"/>
			</g>
			<path class="st19" d="M65.7,70.1c-2.4-2.4-3.6-6-3.2-9.9c0.8-7.7,8-12.5,12.6-13.3c3.7-0.6,6.8,0,9.2,2c2.7,2.2,4.2,6.1,4.3,10.8
				h-1h1c0.1,6.9-5.2,12.5-12.7,13.4c-0.7,0.1-1.4,0.1-2,0.1C69.8,73.2,67.2,71.5,65.7,70.1z M75.5,48.9c-4,0.7-10.3,4.8-11,11.5
				c-0.3,3.3,0.6,6.3,2.6,8.3c2,2,5,2.9,8.7,2.4c6.5-0.7,11.1-5.6,10.9-11.4c0-2.4-0.6-6.8-3.6-9.3c-1.4-1.2-3.2-1.8-5.3-1.8
				C77,48.7,76.2,48.7,75.5,48.9z"/>
		</g>
		<g id="glaz_r">
			<path class="st15" d="M111.7,61.6c-0.1,6.7,5.2,11.6,11.8,12.4c8.9,1,13.1-5.2,12.4-11.8c-0.7-7-7.2-11.6-11.8-12.4
				C115.2,48.4,111.9,55,111.7,61.6z"/>
			<g>
				<path class="st16" d="M129.2,68.3c0.3,0,0.7,0.1,1,0.2c1.3-1.7,2.2-3.7,2.2-6.1c0.1-5.6-4.2-10.1-9.8-10.3
					c-0.9,0-1.8,0.1-2.6,0.3c1.2,0.6,2.1,1.9,2.1,3.3c0,2-1.7,3.6-3.7,3.5s-3.6-1.7-3.5-3.7v0c-1.5,1.7-2.5,3.9-2.5,6.4
					c-0.1,5.6,4.2,10.1,9.8,10.3c1.7,0,3.2-0.3,4.6-1c0-0.2-0.1-0.4,0-0.6C126.7,69.3,127.8,68.2,129.2,68.3z"/>
			</g>
			<path class="st17" d="M129.2,68.3c0.3,0,0.6,0.1,0.9,0.2c1.4-1.7,2.2-3.7,2.2-6c0-2-0.5-3.9-1.5-5.6c-0.3-0.4-0.9-0.6-1.3-0.3
				c-0.4,0.3-0.6,0.9-0.3,1.3c0.8,1.3,1.3,2.9,1.2,4.4c0,2.1-0.9,4.1-2.5,5.5c-1.5,1.5-3.5,2.2-5.7,2.2c-1.9,0-3.7-0.8-5.1-2
				c-0.4-0.3-1-0.3-1.4,0c-0.3,0.4-0.3,1,0,1.4c1.7,1.6,4,2.5,6.4,2.5c0.1,0,0.1,0,0.2,0c1.5,0,3-0.3,4.3-1c0-0.1,0-0.3,0-0.4
				C126.7,69.3,127.8,68.2,129.2,68.3z"/>
			<g>
				<path class="st18" d="M122.6,54.4c-0.2,0-0.5,0-0.7,0c0.1,0.4,0.2,0.9,0.2,1.4c0,2-1.7,3.6-3.7,3.5c-1,0-2-0.5-2.6-1.2
					c-0.7,1.1-1.1,2.5-1.2,3.9c-0.1,4.3,3.3,7.9,7.6,8c4.3,0.1,7.9-3.3,8-7.6C130.3,58.1,126.9,54.5,122.6,54.4z"/>
			</g>
			<path class="st19" d="M125.4,75.1c-0.6,0-1.3,0-2-0.1c-7.5-0.9-12.8-6.5-12.7-13.4h1h-1c0.1-4.7,1.7-8.6,4.3-10.8
				c2.4-1.9,5.4-2.6,9.2-2c4.6,0.8,11.8,5.5,12.6,13.3c0.4,3.9-0.7,7.5-3.2,9.9C132.2,73.5,129.5,75.1,125.4,75.1z M121.7,50.7
				c-2.1,0-3.9,0.6-5.3,1.8c-3,2.5-3.6,6.9-3.6,9.3c-0.1,5.8,4.4,10.6,10.9,11.4c3.6,0.4,6.7-0.4,8.7-2.4c2-2,3-5,2.6-8.3
				c-0.7-6.7-6.9-10.8-11-11.5C123.1,50.7,122.4,50.7,121.7,50.7z"/>
		</g>
	</g>
	<path class="st20" d="M77.4,79.4c-1.1,7.8,7.1,15.4,18.4,17.1c11.3,1.7,21.4-3.3,22.6-11c1.1-7.8-8.1-21.2-18-22.7
		C90.6,61.4,78.6,71.6,77.4,79.4z"/>
	<g id="morda">
		<path class="st3" d="M56.9,60.8c-3.9-2.3-10.4-0.9-9.6,7.8c0.5,6,8.6,15.6,15.6,17.5c4,1.1,4.1-6.5,2.7-10.8
			C65,73.3,61.9,63.8,56.9,60.8z"/>
		<path class="st3" d="M144.9,67.4c-5.4,2.2-10,11.1-10.9,13c-2,4.1-3.2,11.6,1,11.1c7.2-0.8,16.7-9.1,18.2-14.8
			C155.3,68.1,149.1,65.7,144.9,67.4z"/>
	</g>
	<path id="rot" class="st21" d="M102.8,92.6c7-1.1,10.2-5.2,9.3-9.3c-0.3-1.5-4.3,6.1-15.4,3.4c-0.5,1.2,3.6,1.2,1.3,3.5
		C96.4,91.8,100.2,93,102.8,92.6z"/>
	<g id="nos">
		<path class="st22" d="M88.6,74.9c-0.2,3.2,6,7.8,9.2,8c3.2,0.2,10-3.4,10.1-6.7c0.2-3.2-4-4.6-9.3-5C93.3,71,88.9,71.7,88.6,74.9z
			"/>
		<path class="st23" d="M97.4,73.5c1.1,0.1,0.8,2-0.2,1.9c-1.3-0.1-3.9-0.1-4.9,0.4c-0.9,0.5-1.9-0.6-1-1.5c0.6-0.5,1.9-0.8,2.8-0.9
			C95.4,73.2,96.7,73.4,97.4,73.5z"/>
	</g>
	<g id="uho_l">
		<path class="st24" d="M78.1,15.9C77.8,10.5,66,5.7,61.1,5.3c-7.7-0.7-14.4-3.4-19.3,12.1c0,0.7-0.1,1.4-0.1,2.2
			c-1.1,14.2,7.4,25.5,13,21.6c3.1-2.2,4.3-4.7,4.6-7.4c-1.4-1.7-1.1-6.5,6.2-10.2c1.9-1,4.4-0.1,4.4,0c1.5,0.3,3.2,0.7,4.9,0.1
			c0.3-0.1,0.7-0.3,1.1-0.5C77.1,21.3,78.3,18.6,78.1,15.9z"/>
		<g>
			<path class="st9" d="M69.6,22.3c-5.8-4-10.4-5.4-13.9-3.9c-3.6,1.5-4.4,5.5-4.4,5.7c-0.1,0.5,0.2,1,0.8,1.1c0,0,0.1,0,0.2,0
				c0.4,0,0.9-0.3,1-0.8c0,0,0.5-2.5,2.4-3.8c-0.7,1.5-0.7,3.8-0.3,5.4c0.5,2.6,1.9,5.2,4,7.7c0.1-1,0.1-2,0-3c-0.2-2.8,4.2-5.6,7-7
				c1.1-0.5,2.3-0.4,3.6-0.1C70.1,23.1,70,22.5,69.6,22.3z"/>
		</g>
		<path class="st25" d="M81.8,12c-0.5-1.6-1.7-3.1-3.3-4.4c-2.7-2.2-6.7-4-11.3-5c-22.5-5-24.4,2.4-25.4,14.7
			C46.7,1.8,54.9,5,61.2,5.7c4.9,0.5,15.7,4.6,16.1,10c0.2,2.7-0.5,5.4-1.3,7.3c2.5-1.4,5.2-4.4,6.1-7.7
			C82.3,14.2,82.2,13.1,81.8,12z"/>
	</g>
	<g id="uho_r">
		<path class="st24" d="M153.7,2.7l1.6,0.8C154.8,3.2,154.3,2.9,153.7,2.7z"/>
		<path class="st24" d="M160.8,20.5c0-1.3-0.1-2.5-0.2-3.7c-2.9-13.7-11-13.2-17.2-12.7c-4.9,0.4-18.3,5.5-18.8,10.9
			c-0.3,3.3,1.7,6.5,2.6,8.5c0.1,0.1,0.3,0.1,0.5,0.2c1.7,0.6,3.3,0.3,4.9,0c-0.2-0.4,2.1-1.7,6.6,1.5c4.1,3,5.9,6.6,3.7,9
			c0.2,2.8,1.3,5.3,4.4,7.5C152.7,45.8,161.4,34.8,160.8,20.5z"/>
		<path class="st25" d="M125.5,14.8c0.5-5.4,11.4-9.2,16.3-9.6c6.2-0.5,14.4-3.4,18.8,11.6c-0.4-6.1-1.3-10.8-5.3-13.3l-1.6-0.8
			c-3.6-1.4-9.3-1.5-18,0.1c-9.2,1.8-16.4,6.7-15.1,12.4c0.8,3.6,3.9,6.9,6.5,8.2C126.2,21.4,125.2,18.1,125.5,14.8z"/>
		<path class="st9" d="M146.8,21.1c1.9,1.4,2.3,3.8,2.3,3.8c0,0.5,0.5,0.8,1,0.8c0,0,0.1,0,0.1,0c0.5-0.1,0.9-0.6,0.8-1.1
			c0-0.1-0.6-4.2-4.2-5.8c-3.4-1.5-8.1-0.3-14,3.5c-0.4,0.3-0.5,0.8-0.3,1.3c1.3-0.2,2.5-0.3,3.6,0.2c2.8,1.5,7.1,4.5,6.8,7.2
			c-0.1,1-0.1,2-0.1,3c2.1-2.5,3.6-5.1,4.2-7.6C147.3,24.9,147.5,22.7,146.8,21.1z"/>
	</g>
	<g id="brovi">
		<path class="st26" d="M76.1,32.7c-6.5,0.8-10,2.6-8,6.1c1,1.8,4,1.4,8.7,0.1c4.2-1.2,5.6-2.2,5.2-3.9
			C81.7,33.1,80.1,32.2,76.1,32.7z"/>
		<path class="st26" d="M125.3,33.5c-3.8-0.9-5.5-0.1-6.1,1.7c-0.6,1.7,0.6,2.8,4.7,4.4c4.6,1.8,7.5,2.5,8.7,0.8
			C134.9,37.1,131.7,34.9,125.3,33.5z"/>
	</g>
</g>
</svg>
