<?xml version="1.0" encoding="utf-8"?>
<!-- Generator: Adobe Illustrator 21.1.0, SVG Export Plug-In . SVG Version: 6.00 Build 0)  -->
<svg version="1.1" id="Layer_1" xmlns="http://www.w3.org/2000/svg" xmlns:xlink="http://www.w3.org/1999/xlink" x="0px" y="0px"
	 viewBox="0 0 27 18" style="enable-background:new 0 0 27 18;" xml:space="preserve">
<style type="text/css">
	.st0{fill:#F5F5F5;}
	.st1{fill:#FF4B55;}
	.st2{fill:#41479B;}
</style>
<g>
	<path class="st0" d="M27,6H0V0.5C0,0.2,0.2,0,0.5,0h26.1C26.8,0,27,0.2,27,0.5L27,6L27,6z"/>
	<path class="st1" d="M26.5,18H0.5C0.2,18,0,17.8,0,17.5V12h27v5.5C27,17.8,26.8,18,26.5,18z"/>
	<rect x="0" y="6" class="st2" width="27" height="6"/>
</g>
</svg>
