{
	"version": 3,
	"id": "18ec3f8e-c43e-4ccf-bbc8-e23c3102b181",
	"address": "e70c598207bf0672e17471751533a55c0fb1c7aa",
	"Crypto": {
		"ciphertext": "e328e4893ed8ee69de462c786862331a959e02c76079510e4a716ca45b604056",
		"cipherparams": {
			"iv": "d4917523ea1d0c55b6e94f3c0546d7f8"
		},
		"cipher": "aes-128-ctr",
		"kdf": "scrypt",
		"kdfparams": {
			"dklen": 32,
			"salt": "1b78e6706d45d8c113e3293093f23ecd0ff1c8404a955765a1ada04601303dd8",
			"n": 1024,
			"r": 8,
			"p": 1
		},
		"mac": "737b491e164df81948e4b6de700ad93d8c84b54f34c235bba2774916c7feb760"
	}
}
